^C:\USERS\СЕРГЕЙ\SOURCE\REPOS\PROJECT2\MAIN.CPP
C:\USERS\Сергей\SOURCE\REPOS\PROJECT2\DEBUG\VC142.PDB
C:\USERS\Сергей\SOURCE\REPOS\PROJECT2\DEBUG\VC142.IDB
C:\USERS\Сергей\SOURCE\REPOS\PROJECT2\DEBUG\MAIN.OBJ
